*** Life<ConwayCell> 15x11 ***

Generation = 0, Population = 95.
.*.***.****
.**...****.
.******..*.
...*....**.
****...*.*.
.********..
*****..**.*
..****.***.
*...**.***.
*...****.*.
.**.**.**.*
.*...*****.
.**.**.**..
*..*..*****
..*.*.*...*

Generation = 1000, Population = 9.
...........
...........
...........
..***...***
...........
......*....
......*....
......*....
...........
...........
...........
...........
...........
...........
...........

Generation = 2000, Population = 9.
...........
...........
...........
..***...***
...........
......*....
......*....
......*....
...........
...........
...........
...........
...........
...........
...........

*** Life<ConwayCell> 12x13 ***

Generation = 0, Population = 92.
.*.*..*..***.
*******.****.
.*....***.***
..*..*..*****
**.****...***
.***.*....***
...**.*....**
..**.*****.**
..**.*.**..*.
******.******
**...*****...
.***...***...

Generation = 1000, Population = 4.
.............
.............
.............
.............
.............
.....**......
.....**......
.............
.............
.............
.............
.............

Generation = 2000, Population = 4.
.............
.............
.............
.............
.............
.....**......
.....**......
.............
.............
.............
.............
.............

*** Life<ConwayCell> 11x15 ***

Generation = 0, Population = 79.
*...*.**....***
.*.**..*.***..*
.**.**....*...*
..*......**.*..
*.*.****...**..
..**.**.***.*..
..*.*....**.*..
..**...*.*.****
********.......
*..**..**..*.**
*..****.*..***.

Generation = 1000, Population = 4.
...............
...............
...............
...............
...............
...............
...............
...............
**.............
**.............
...............

Generation = 2000, Population = 4.
...............
...............
...............
...............
...............
...............
...............
...............
**.............
**.............
...............

*** Life<ConwayCell> 14x12 ***

Generation = 0, Population = 124.
.***..***.*.
*******.****
*.**********
**.*****.***
****.*.*****
**.*******..
.****..*...*
.***********
..**.*..*...
*.*.****..**
******..****
.***********
******.**.**
.**...**..**

Generation = 1000, Population = 0.
............
............
............
............
............
............
............
............
............
............
............
............
............
............

Generation = 2000, Population = 0.
............
............
............
............
............
............
............
............
............
............
............
............
............
............

*** Life<ConwayCell> 13x14 ***

Generation = 0, Population = 115.
.*..***.***..*
..***..*******
.*...***.*****
*..***.*******
*.*****..***.*
*..**..*....**
****.*..*.**.*
*.******.**..*
****.*****.**.
..*..*.*..***.
....***.***.*.
*..********.*.
.**.*..*.*.***

Generation = 1000, Population = 10.
..............
..............
..............
..............
........*.....
.......*.*....
.......*.*....
........*.....
..............
..............
............**
............**
..............

Generation = 2000, Population = 10.
..............
..............
..............
..............
........*.....
.......*.*....
.......*.*....
........*.....
..............
..............
............**
............**
..............

*** Life<ConwayCell> 14x15 ***

Generation = 0, Population = 107.
*.***..**.*..*.
*.***.*..**..*.
.*.****.*.**.**
*.*.**....**.**
..********.*...
.*.*....*.**.*.
******.**...**.
..*.**...*.**..
..*..*.**..*...
.***....***...*
.*..*.***...*..
*..***.*..****.
..*.***.*..**..
...**.*.**.**.*

Generation = 1000, Population = 0.
...............
...............
...............
...............
...............
...............
...............
...............
...............
...............
...............
...............
...............
...............

Generation = 2000, Population = 0.
...............
...............
...............
...............
...............
...............
...............
...............
...............
...............
...............
...............
...............
...............

*** Life<ConwayCell> 15x13 ***

Generation = 0, Population = 101.
.*...*...**.*
.*.*.***.*.*.
***.***.***.*
*.*...*..****
.**.**.***.**
*.**.......**
*********....
***.*.***..**
.....**.*.***
*...*...*..*.
...**.*..****
*...*.*.**..*
*.**....**...
..**..*.*.***
.....*.**.*.*

Generation = 1000, Population = 0.
.............
.............
.............
.............
.............
.............
.............
.............
.............
.............
.............
.............
.............
.............
.............

Generation = 2000, Population = 0.
.............
.............
.............
.............
.............
.............
.............
.............
.............
.............
.............
.............
.............
.............
.............

*** Life<ConwayCell> 14x15 ***

Generation = 0, Population = 131.
*****..********
***.*...***..*.
*..***.*..*****
**..***...*.***
.**.*..**..*.**
..*.***.******.
...**.*.*.****.
.****.***...***
****.****..*.**
.*.*.*.****..*.
*..*..*.***.**.
.*..*.*****....
.**...********.
**.*****..**.**

Generation = 1000, Population = 14.
............**.
.......**...**.
.......**......
...............
...............
...............
...............
...............
............*..
..........*..*.
..........*..*.
...........*...
...............
...............

Generation = 2000, Population = 14.
............**.
.......**...**.
.......**......
...............
...............
...............
...............
...............
............*..
..........*..*.
..........*..*.
...........*...
...............
...............

*** Life<ConwayCell> 12x14 ***

Generation = 0, Population = 101.
*.******..***.
***.*****.****
...*..**..*.*.
**...*.*.*.***
.*.*.*.*...*.*
.*..**.***.***
*****.*.****..
**.....*.....*
*.**..*..*....
*.***.*.******
.**.********..
*******..*.***

Generation = 1000, Population = 11.
..............
..............
.....**.......
....*..*......
.....**.......
..............
..............
..............
..............
**............
*.*...........
.*............

Generation = 2000, Population = 11.
..............
..............
.....**.......
....*..*......
.....**.......
..............
..............
..............
..............
**............
*.*...........
.*............

*** Life<ConwayCell> 15x12 ***

Generation = 0, Population = 87.
..*.....**.*
..***..*.*..
..*.*****..*
.****.***..*
*.**..*....*
.*...*...*.*
.....*......
*....*****.*
.**********.
..*****..*.*
.*..**.*.*.*
.**..**...*.
...*..*.**..
*.*.*.******
...**..*.**.

Generation = 1000, Population = 15.
............
............
............
............
............
.......*....
.......*....
.......*....
............
............
............
.........**.
***.....*..*
.***.....**.
............

Generation = 2000, Population = 15.
............
............
............
............
............
.......*....
.......*....
.......*....
............
............
............
.........**.
***.....*..*
.***.....**.
............

